…
**Exercise 10**: Explain the logic and function for each line of the code used to create `uniq.blast.results` above.  Why was `arrange` used and why with those arguments?  what is duplicated doing (__hint__, use `?duplicated` to see the help file), and why is `!` used in that line?


```r
uniq.blast.results <- blast.results %>% #store the results below to uniq.blast.results
    group_by(strategy, subject.acc.ver) %>% #group by both strategy and subject.acc.ver
    arrange(desc(alignment.length)) %>%  #align with order of ailgnment length from longest to shortest
    filter(!duplicated(subject.acc.ver)) #filter out duplicated ones with same subject.acc.ver
uniq.blast.results
```

```
## # A tibble: 10,538 x 14
## # Groups:   strategy, subject.acc.ver [10,538]
##    strategy query.acc.ver subject.acc.ver pct.identity alignment.length
##    <chr>    <chr>         <chr>                  <dbl>            <dbl>
##  1 blastnW… Seq_H         KC881006                80.7            26651
##  2 dc_mega… Seq_H         KC881006                80.7            26651
##  3 blastnW… Seq_H         KY417146                80.7            26649
##  4 dc_mega… Seq_H         KY417146                80.7            26649
##  5 blastnW… Seq_H         KC881005                80.6            26647
##  6 dc_mega… Seq_H         KC881005                80.6            26647
##  7 blastnW… Seq_H         KY417152                80.7            26646
##  8 dc_mega… Seq_H         KY417152                80.7            26646
##  9 blastnW… Seq_H         KF569996                80.6            26642
## 10 dc_mega… Seq_H         KF569996                80.6            26642
## # … with 10,528 more rows, and 9 more variables: mismatches <dbl>,
## #   gap.opens <dbl>, q.start <dbl>, q.end <dbl>, s.start <dbl>, s.end <dbl>,
## #   evalue <dbl>, bit.score <dbl>, subject.title <chr>
```
…
**Exercise 18:** Look back to the code where we created `uniq.blast.results` Use a similar strategy to retain the entry with longest alignment length for each combination of name, country, and host


```r
uniq.blast.results2_temp <- filtered.blastn %>% 
    group_by(name,country,host) %>% 
    arrange(desc(alignment.length))%>%
    filter(alignment.length==max(alignment.length))%>%
    filter(!duplicated(name))
uniq.blast.results2_temp
```

```
## # A tibble: 248 x 20
## # Groups:   name, country, host [248]
##    strategy query.acc.ver subject.acc.ver pct.identity alignment.length
##    <chr>    <chr>         <chr>                  <dbl>            <dbl>
##  1 blastnW… Seq_H         KC881006                80.7            26651
##  2 blastnW… Seq_H         KF569996                80.6            26642
##  3 blastnW… Seq_H         FJ959407                80.2            24676
##  4 blastnW… Seq_H         AY274119                80.3            24666
##  5 blastnW… Seq_H         GU553364                80.3            24666
##  6 blastnW… Seq_H         MK062179                80.3            24666
##  7 blastnW… Seq_H         GU553365                80.2            24666
##  8 blastnW… Seq_H         JF292914                80.2            24666
##  9 blastnW… Seq_H         AY515512                80.2            24664
## 10 blastnW… Seq_H         AY572034                80.2            24664
## # … with 238 more rows, and 15 more variables: mismatches <dbl>,
## #   gap.opens <dbl>, q.start <dbl>, q.end <dbl>, s.start <dbl>, s.end <dbl>,
## #   evalue <dbl>, bit.score <dbl>, subject.title <chr>, acc <chr>,
## #   isolate <chr>, complete <chr>, name <chr>, country <chr>, host <chr>
```
**Exercise 19:** Finally, let's retain those with an alignment length >= 5000

```r
uniq.blast.result2 <- uniq.blast.results2_temp %>%
  filter(alignment.length>=5000)
uniq.blast.result2
```

```
## # A tibble: 102 x 20
## # Groups:   name, country, host [102]
##    strategy query.acc.ver subject.acc.ver pct.identity alignment.length
##    <chr>    <chr>         <chr>                  <dbl>            <dbl>
##  1 blastnW… Seq_H         KC881006                80.7            26651
##  2 blastnW… Seq_H         KF569996                80.6            26642
##  3 blastnW… Seq_H         FJ959407                80.2            24676
##  4 blastnW… Seq_H         AY274119                80.3            24666
##  5 blastnW… Seq_H         GU553364                80.3            24666
##  6 blastnW… Seq_H         MK062179                80.3            24666
##  7 blastnW… Seq_H         GU553365                80.2            24666
##  8 blastnW… Seq_H         JF292914                80.2            24666
##  9 blastnW… Seq_H         AY515512                80.2            24664
## 10 blastnW… Seq_H         AY572034                80.2            24664
## # … with 92 more rows, and 15 more variables: mismatches <dbl>,
## #   gap.opens <dbl>, q.start <dbl>, q.end <dbl>, s.start <dbl>, s.end <dbl>,
## #   evalue <dbl>, bit.score <dbl>, subject.title <chr>, acc <chr>,
## #   isolate <chr>, complete <chr>, name <chr>, country <chr>, host <chr>
```
…
